%YAML 1.1
%TAG !u! tag:unity3d.com,2011:
--- !u!114 &11400000
MonoBehaviour:
  m_ObjectHideFlags: 0
  m_CorrespondingSourceObject: {fileID: 0}
  m_PrefabInstance: {fileID: 0}
  m_PrefabAsset: {fileID: 0}
  m_GameObject: {fileID: 0}
  m_Enabled: 1
  m_EditorHideFlags: 0
  m_Script: {fileID: 11500000, guid: af35bb4fa35945344a91c598301b9b92, type: 3}
  m_Name: Ring2
  m_EditorClassIdentifier: 
  prefabs: {fileID: 21300000, guid: 8bcb07d9c2c4c484caf61c33f48e3dd8, type: 3}
  nameItem: "Nh\u1EABn b\u1EA1c ma ph\xE1p"
  itemType: 7
  description: "T\u0103ng ch\u1EC9 s\u1ED1 th\xF4ng minh v\xE0 s\u1EE9c m\u1EA1nh"
  id: 0
  atkBonus: 0
  magicBonus: 0
  defBonus: 0
  dropRate: 4
  price: 50
