%YAML 1.1
%TAG !u! tag:unity3d.com,2011:
--- !u!114 &11400000
MonoBehaviour:
  m_ObjectHideFlags: 0
  m_CorrespondingSourceObject: {fileID: 0}
  m_PrefabInstance: {fileID: 0}
  m_PrefabAsset: {fileID: 0}
  m_GameObject: {fileID: 0}
  m_Enabled: 1
  m_EditorHideFlags: 0
  m_Script: {fileID: 11500000, guid: dd44bc93b1770fa4f916b22aeab6914e, type: 3}
  m_Name: Weapon
  m_EditorClassIdentifier: 
  prefabs: {fileID: 21300000, guid: a4b5f62f33b3e004e8aace652e009615, type: 3}
  nameItem: "G\u1EADy th\xE1nh"
  itemType: 2
  description: "T\u0103ng t\u1EA5n c\xF4ng\nATK: 10\nDEF:20"
  id: 0
  atkBonus: 10
  magicBonus: 0
  defBonus: 20
  dropRate: 100
  price: 70
