%YAML 1.1
%TAG !u! tag:unity3d.com,2011:
--- !u!74 &7400000
AnimationClip:
  m_ObjectHideFlags: 0
  m_CorrespondingSourceObject: {fileID: 0}
  m_PrefabInstance: {fileID: 0}
  m_PrefabAsset: {fileID: 0}
  m_Name: EnemyDie
  serializedVersion: 6
  m_Legacy: 0
  m_Compressed: 0
  m_UseHighQualityCurve: 1
  m_RotationCurves: []
  m_CompressedRotationCurves: []
  m_EulerCurves: []
  m_PositionCurves: []
  m_ScaleCurves: []
  m_FloatCurves:
  - curve:
      serializedVersion: 2
      m_Curve:
      - serializedVersion: 3
        time: 0
        value: 0
        inSlope: Infinity
        outSlope: Infinity
        tangentMode: 103
        weightedMode: 0
        inWeight: 0
        outWeight: 0
      - serializedVersion: 3
        time: 0.28333333
        value: 0
        inSlope: Infinity
        outSlope: Infinity
        tangentMode: 103
        weightedMode: 0
        inWeight: 0
        outWeight: 0
      - serializedVersion: 3
        time: 0.65
        value: 1
        inSlope: Infinity
        outSlope: Infinity
        tangentMode: 103
        weightedMode: 0
        inWeight: 0
        outWeight: 0
      m_PreInfinity: 2
      m_PostInfinity: 2
      m_RotationOrder: 4
    attribute: m_IsActive
    path: AttackRange
    classID: 1
    script: {fileID: 0}
  m_PPtrCurves:
  - curve:
    - time: 0
      value: {fileID: 21300000, guid: c446b5dcec6428744982a5173a54a72c, type: 3}
    - time: 0.033333335
      value: {fileID: 21300000, guid: b690f0832a7059142aff4c0e4fa0dc38, type: 3}
    - time: 0.1
      value: {fileID: 21300000, guid: c04ac43f0835a1041b4b522ea21a565d, type: 3}
    - time: 0.15
      value: {fileID: 21300000, guid: cd11e4cf3831518408588a14794201f5, type: 3}
    - time: 0.16666667
      value: {fileID: 21300000, guid: fd87a1055843b4841bd13b113c3ff6a4, type: 3}
    - time: 0.23333333
      value: {fileID: 21300000, guid: 1802f72b181f4d2468836371f2823f62, type: 3}
    - time: 0.26666668
      value: {fileID: 21300000, guid: 53e21418f0b32744fbc57240f86e44c4, type: 3}
    - time: 0.33333334
      value: {fileID: 21300000, guid: 204f3b5a40e1fe941b677cd1d2d593ad, type: 3}
    - time: 0.36666667
      value: {fileID: 21300000, guid: f1e06543495821a4ab583f1b7fac5178, type: 3}
    - time: 0.4
      value: {fileID: 21300000, guid: 046840ce995d4374c9c6f3e003a3ad55, type: 3}
    - time: 0.46666667
      value: {fileID: 21300000, guid: 429b34e682c37c24197d03a572d9102b, type: 3}
    - time: 0.5
      value: {fileID: 21300000, guid: 42257d1496a71f643ae64e0df1ae23b0, type: 3}
    - time: 0.53333336
      value: {fileID: 21300000, guid: fecdbaf6401fd2e43a0ba02cfec75bc6, type: 3}
    - time: 0.5833333
      value: {fileID: 21300000, guid: c0364785011cf2f4c83293dd2859689d, type: 3}
    - time: 0.6333333
      value: {fileID: 21300000, guid: 80c7d682bbdd39040bf6b3321e57ca6e, type: 3}
    attribute: m_Sprite
    path: 
    classID: 212
    script: {fileID: 0}
  m_SampleRate: 60
  m_WrapMode: 0
  m_Bounds:
    m_Center: {x: 0, y: 0, z: 0}
    m_Extent: {x: 0, y: 0, z: 0}
  m_ClipBindingConstant:
    genericBindings:
    - serializedVersion: 2
      path: 2128890732
      attribute: 2086281974
      script: {fileID: 0}
      typeID: 1
      customType: 0
      isPPtrCurve: 0
    - serializedVersion: 2
      path: 0
      attribute: 0
      script: {fileID: 0}
      typeID: 212
      customType: 23
      isPPtrCurve: 1
    pptrCurveMapping:
    - {fileID: 21300000, guid: c446b5dcec6428744982a5173a54a72c, type: 3}
    - {fileID: 21300000, guid: b690f0832a7059142aff4c0e4fa0dc38, type: 3}
    - {fileID: 21300000, guid: c04ac43f0835a1041b4b522ea21a565d, type: 3}
    - {fileID: 21300000, guid: cd11e4cf3831518408588a14794201f5, type: 3}
    - {fileID: 21300000, guid: fd87a1055843b4841bd13b113c3ff6a4, type: 3}
    - {fileID: 21300000, guid: 1802f72b181f4d2468836371f2823f62, type: 3}
    - {fileID: 21300000, guid: 53e21418f0b32744fbc57240f86e44c4, type: 3}
    - {fileID: 21300000, guid: 204f3b5a40e1fe941b677cd1d2d593ad, type: 3}
    - {fileID: 21300000, guid: f1e06543495821a4ab583f1b7fac5178, type: 3}
    - {fileID: 21300000, guid: 046840ce995d4374c9c6f3e003a3ad55, type: 3}
    - {fileID: 21300000, guid: 429b34e682c37c24197d03a572d9102b, type: 3}
    - {fileID: 21300000, guid: 42257d1496a71f643ae64e0df1ae23b0, type: 3}
    - {fileID: 21300000, guid: fecdbaf6401fd2e43a0ba02cfec75bc6, type: 3}
    - {fileID: 21300000, guid: c0364785011cf2f4c83293dd2859689d, type: 3}
    - {fileID: 21300000, guid: 80c7d682bbdd39040bf6b3321e57ca6e, type: 3}
  m_AnimationClipSettings:
    serializedVersion: 2
    m_AdditiveReferencePoseClip: {fileID: 0}
    m_AdditiveReferencePoseTime: 0
    m_StartTime: 0
    m_StopTime: 0.65
    m_OrientationOffsetY: 0
    m_Level: 0
    m_CycleOffset: 0
    m_HasAdditiveReferencePose: 0
    m_LoopTime: 0
    m_LoopBlend: 0
    m_LoopBlendOrientation: 0
    m_LoopBlendPositionY: 0
    m_LoopBlendPositionXZ: 0
    m_KeepOriginalOrientation: 0
    m_KeepOriginalPositionY: 1
    m_KeepOriginalPositionXZ: 0
    m_HeightFromFeet: 0
    m_Mirror: 0
  m_EditorCurves:
  - curve:
      serializedVersion: 2
      m_Curve:
      - serializedVersion: 3
        time: 0
        value: 0
        inSlope: Infinity
        outSlope: Infinity
        tangentMode: 103
        weightedMode: 0
        inWeight: 0
        outWeight: 0
      - serializedVersion: 3
        time: 0.28333333
        value: 0
        inSlope: Infinity
        outSlope: Infinity
        tangentMode: 103
        weightedMode: 0
        inWeight: 0
        outWeight: 0
      - serializedVersion: 3
        time: 0.65
        value: 1
        inSlope: Infinity
        outSlope: Infinity
        tangentMode: 103
        weightedMode: 0
        inWeight: 0
        outWeight: 0
      m_PreInfinity: 2
      m_PostInfinity: 2
      m_RotationOrder: 4
    attribute: m_IsActive
    path: AttackRange
    classID: 1
    script: {fileID: 0}
  m_EulerEditorCurves: []
  m_HasGenericRootTransform: 0
  m_HasMotionFloatCurves: 0
  m_Events: []
