%YAML 1.1
%TAG !u! tag:unity3d.com,2011:
--- !u!74 &7400000
AnimationClip:
  m_ObjectHideFlags: 0
  m_CorrespondingSourceObject: {fileID: 0}
  m_PrefabInstance: {fileID: 0}
  m_PrefabAsset: {fileID: 0}
  m_Name: Enemy1Walk
  serializedVersion: 6
  m_Legacy: 0
  m_Compressed: 0
  m_UseHighQualityCurve: 1
  m_RotationCurves: []
  m_CompressedRotationCurves: []
  m_EulerCurves: []
  m_PositionCurves: []
  m_ScaleCurves: []
  m_FloatCurves:
  - curve:
      serializedVersion: 2
      m_Curve:
      - serializedVersion: 3
        time: 0
        value: 0
        inSlope: Infinity
        outSlope: Infinity
        tangentMode: 103
        weightedMode: 0
        inWeight: 0
        outWeight: 0
      - serializedVersion: 3
        time: 1.4
        value: 1
        inSlope: Infinity
        outSlope: Infinity
        tangentMode: 103
        weightedMode: 0
        inWeight: 0
        outWeight: 0
      m_PreInfinity: 2
      m_PostInfinity: 2
      m_RotationOrder: 4
    attribute: m_IsActive
    path: AttackRange
    classID: 1
    script: {fileID: 0}
  m_PPtrCurves:
  - curve:
    - time: 0
      value: {fileID: 21300000, guid: d8c909c36bd722d41a56c7d963dadeef, type: 3}
    - time: 0.06666667
      value: {fileID: 21300000, guid: 37e9caf37feed7e4f9a48bd8a0c75712, type: 3}
    - time: 0.15
      value: {fileID: 21300000, guid: 359937bc801182a479df97962fd6a2a6, type: 3}
    - time: 0.23333333
      value: {fileID: 21300000, guid: f06fa2bf885576e4fa99a73320198e57, type: 3}
    - time: 0.31666666
      value: {fileID: 21300000, guid: 668104f8a7966a9488788debed0e3a2f, type: 3}
    - time: 0.38333333
      value: {fileID: 21300000, guid: f7d1f372df07c2e4e8dd009742603f17, type: 3}
    - time: 0.46666667
      value: {fileID: 21300000, guid: 3d8e905d079a2e340a80a152897d096a, type: 3}
    - time: 0.55
      value: {fileID: 21300000, guid: f5ab9e52826f3bd43b7ba7d35f74c9ce, type: 3}
    - time: 0.6333333
      value: {fileID: 21300000, guid: ac7f701ab6ebedc4b945a238b2e0622c, type: 3}
    - time: 0.71666664
      value: {fileID: 21300000, guid: d608c993178407443928b6f69138adb9, type: 3}
    - time: 0.81666666
      value: {fileID: 21300000, guid: 693c587a5eabece429d91caf160d7459, type: 3}
    - time: 0.9
      value: {fileID: 21300000, guid: 3b22926817b55334b87363293b94dcd8, type: 3}
    - time: 0.98333335
      value: {fileID: 21300000, guid: 39fca8ce8917e3f4cbc681f344b97521, type: 3}
    - time: 1.0666667
      value: {fileID: 21300000, guid: 0a574767984203d4db58d8469d3974bd, type: 3}
    - time: 1.1333333
      value: {fileID: 21300000, guid: e4231153a4c16db479b9d7dd2d21527b, type: 3}
    - time: 1.2166667
      value: {fileID: 21300000, guid: c34506ba48ee42d408460aa1c50fed37, type: 3}
    - time: 1.3
      value: {fileID: 21300000, guid: c2f13a89df2ce884399474055d9bde0f, type: 3}
    - time: 1.3833333
      value: {fileID: 21300000, guid: 1eb795844e022c14a9ea2bbed1536557, type: 3}
    attribute: m_Sprite
    path: 
    classID: 212
    script: {fileID: 0}
  m_SampleRate: 60
  m_WrapMode: 0
  m_Bounds:
    m_Center: {x: 0, y: 0, z: 0}
    m_Extent: {x: 0, y: 0, z: 0}
  m_ClipBindingConstant:
    genericBindings:
    - serializedVersion: 2
      path: 2128890732
      attribute: 2086281974
      script: {fileID: 0}
      typeID: 1
      customType: 0
      isPPtrCurve: 0
    - serializedVersion: 2
      path: 0
      attribute: 0
      script: {fileID: 0}
      typeID: 212
      customType: 23
      isPPtrCurve: 1
    pptrCurveMapping:
    - {fileID: 21300000, guid: d8c909c36bd722d41a56c7d963dadeef, type: 3}
    - {fileID: 21300000, guid: 37e9caf37feed7e4f9a48bd8a0c75712, type: 3}
    - {fileID: 21300000, guid: 359937bc801182a479df97962fd6a2a6, type: 3}
    - {fileID: 21300000, guid: f06fa2bf885576e4fa99a73320198e57, type: 3}
    - {fileID: 21300000, guid: 668104f8a7966a9488788debed0e3a2f, type: 3}
    - {fileID: 21300000, guid: f7d1f372df07c2e4e8dd009742603f17, type: 3}
    - {fileID: 21300000, guid: 3d8e905d079a2e340a80a152897d096a, type: 3}
    - {fileID: 21300000, guid: f5ab9e52826f3bd43b7ba7d35f74c9ce, type: 3}
    - {fileID: 21300000, guid: ac7f701ab6ebedc4b945a238b2e0622c, type: 3}
    - {fileID: 21300000, guid: d608c993178407443928b6f69138adb9, type: 3}
    - {fileID: 21300000, guid: 693c587a5eabece429d91caf160d7459, type: 3}
    - {fileID: 21300000, guid: 3b22926817b55334b87363293b94dcd8, type: 3}
    - {fileID: 21300000, guid: 39fca8ce8917e3f4cbc681f344b97521, type: 3}
    - {fileID: 21300000, guid: 0a574767984203d4db58d8469d3974bd, type: 3}
    - {fileID: 21300000, guid: e4231153a4c16db479b9d7dd2d21527b, type: 3}
    - {fileID: 21300000, guid: c34506ba48ee42d408460aa1c50fed37, type: 3}
    - {fileID: 21300000, guid: c2f13a89df2ce884399474055d9bde0f, type: 3}
    - {fileID: 21300000, guid: 1eb795844e022c14a9ea2bbed1536557, type: 3}
  m_AnimationClipSettings:
    serializedVersion: 2
    m_AdditiveReferencePoseClip: {fileID: 0}
    m_AdditiveReferencePoseTime: 0
    m_StartTime: 0
    m_StopTime: 1.4
    m_OrientationOffsetY: 0
    m_Level: 0
    m_CycleOffset: 0
    m_HasAdditiveReferencePose: 0
    m_LoopTime: 1
    m_LoopBlend: 0
    m_LoopBlendOrientation: 0
    m_LoopBlendPositionY: 0
    m_LoopBlendPositionXZ: 0
    m_KeepOriginalOrientation: 0
    m_KeepOriginalPositionY: 1
    m_KeepOriginalPositionXZ: 0
    m_HeightFromFeet: 0
    m_Mirror: 0
  m_EditorCurves:
  - curve:
      serializedVersion: 2
      m_Curve:
      - serializedVersion: 3
        time: 0
        value: 0
        inSlope: Infinity
        outSlope: Infinity
        tangentMode: 103
        weightedMode: 0
        inWeight: 0
        outWeight: 0
      - serializedVersion: 3
        time: 1.4
        value: 1
        inSlope: Infinity
        outSlope: Infinity
        tangentMode: 103
        weightedMode: 0
        inWeight: 0
        outWeight: 0
      m_PreInfinity: 2
      m_PostInfinity: 2
      m_RotationOrder: 4
    attribute: m_IsActive
    path: AttackRange
    classID: 1
    script: {fileID: 0}
  m_EulerEditorCurves: []
  m_HasGenericRootTransform: 0
  m_HasMotionFloatCurves: 0
  m_Events: []
