%YAML 1.1
%TAG !u! tag:unity3d.com,2011:
--- !u!114 &11400000
MonoBehaviour:
  m_ObjectHideFlags: 0
  m_CorrespondingSourceObject: {fileID: 0}
  m_PrefabInstance: {fileID: 0}
  m_PrefabAsset: {fileID: 0}
  m_GameObject: {fileID: 0}
  m_Enabled: 1
  m_EditorHideFlags: 0
  m_Script: {fileID: 11500000, guid: 7b60de384bcf0d447a22f5cb6ade0e02, type: 3}
  m_Name: Shield1
  m_EditorClassIdentifier: 
  prefabs: {fileID: 21300000, guid: cee802c4711b2cc4c9be089c2d913ba9, type: 3}
  nameItem: "Khi\xEAn b\u1EA1c"
  itemType: 6
  description: "T\u0103ng ph\xF2ng th\u1EE7\nDEF:10"
  id: 0
  atkBonus: 0
  magicBonus: 0
  defBonus: 10
  dropRate: 4
  price: 45
